$date
  Thu Nov 26 00:19:26 2020
$end
$version
  GHDL v0
$end
$timescale
  1 fs
$end
$scope module standard $end
$upscope $end
$scope module std_logic_1164 $end
$upscope $end
$scope module sr_flipflop_tb $end
$var reg 1 ! s $end
$var reg 1 " r $end
$var reg 1 # q $end
$var reg 1 $ qbar $end
$scope module sr_flipflop_0 $end
$var reg 1 % i_s $end
$var reg 1 & i_r $end
$var reg 1 ' o_q $end
$var reg 1 ( o_qbar $end
$upscope $end
$upscope $end
$enddefinitions $end
#0
0!
1"
0#
1$
0%
1&
0'
1(
#20000000
#40000000
0"
0&
#60000000
1!
1#
0$
1%
1'
0(
#70000000
0!
0%
#80000000
#100000000
1"
0#
1$
1&
0'
1(
#110000000
0"
0&
#120000000
#140000000
1!
1"
Z#
X$
1%
1&
Z'
X(
#150000000
